{
  "project_info": {
    "project_number": "421535327263",
    "firebase_url": "https://iserveumainapp.firebaseio.com",
    "project_id": "iserveumainapp",
    "storage_bucket": "iserveumainapp.appspot.com"
  },
  "client": [
    {
      "client_info": {
        "mobilesdk_app_id": "1:421535327263:android:1bde090ef3831d95",
        "android_client_info": {
          "package_name": "com.aadrit.aadritpay"
        }
      },
      "oauth_client": [
        {
          "client_id": "421535327263-c69n08rn83cgjg9lbbd93c0vmmbfl4rd.apps.googleusercontent.com",
          "client_type": 3
        }
      ],
      "api_key": [
        {
          "current_key": "AIzaSyA5djkYQogDtP_HXSx6ZS8wB8BMZzH5z3Q"
        }
      ],
      "services": {
        "appinvite_service": {
          "other_platform_oauth_client": [
            {
              "client_id": "421535327263-c69n08rn83cgjg9lbbd93c0vmmbfl4rd.apps.googleusercontent.com",
              "client_type": 3
            }
          ]
        }
      }
    },
    {
      "client_info": {
        "mobilesdk_app_id": "1:421535327263:android:5462045cc69e8b5f",
        "android_client_info": {
          "package_name": "com.bring.bringpay"
        }
      },
      "oauth_client": [
        {
          "client_id": "421535327263-c69n08rn83cgjg9lbbd93c0vmmbfl4rd.apps.googleusercontent.com",
          "client_type": 3
        }
      ],
      "api_key": [
        {
          "current_key": "AIzaSyA5djkYQogDtP_HXSx6ZS8wB8BMZzH5z3Q"
        }
      ],
      "services": {
        "appinvite_service": {
          "other_platform_oauth_client": [
            {
              "client_id": "421535327263-c69n08rn83cgjg9lbbd93c0vmmbfl4rd.apps.googleusercontent.com",
              "client_type": 3
            }
          ]
        }
      }
    },
    {
      "client_info": {
        "mobilesdk_app_id": "1:421535327263:android:ce3efbf5c50ebe23",
        "android_client_info": {
          "package_name": "com.cyrus.cyrusbion"
        }
      },
      "oauth_client": [
        {
          "client_id": "421535327263-c69n08rn83cgjg9lbbd93c0vmmbfl4rd.apps.googleusercontent.com",
          "client_type": 3
        }
      ],
      "api_key": [
        {
          "current_key": "AIzaSyA5djkYQogDtP_HXSx6ZS8wB8BMZzH5z3Q"
        }
      ],
      "services": {
        "appinvite_service": {
          "other_platform_oauth_client": [
            {
              "client_id": "421535327263-c69n08rn83cgjg9lbbd93c0vmmbfl4rd.apps.googleusercontent.com",
              "client_type": 3
            }
          ]
        }
      }
    },
    {
      "client_info": {
        "mobilesdk_app_id": "1:421535327263:android:eb3a265a66316fcd",
        "android_client_info": {
          "package_name": "com.digital.digitalpaymentsolutions"
        }
      },
      "oauth_client": [
        {
          "client_id": "421535327263-c69n08rn83cgjg9lbbd93c0vmmbfl4rd.apps.googleusercontent.com",
          "client_type": 3
        }
      ],
      "api_key": [
        {
          "current_key": "AIzaSyA5djkYQogDtP_HXSx6ZS8wB8BMZzH5z3Q"
        }
      ],
      "services": {
        "appinvite_service": {
          "other_platform_oauth_client": [
            {
              "client_id": "421535327263-c69n08rn83cgjg9lbbd93c0vmmbfl4rd.apps.googleusercontent.com",
              "client_type": 3
            }
          ]
        }
      }
    },
    {
      "client_info": {
        "mobilesdk_app_id": "1:421535327263:android:39ea9bcae85635e6",
        "android_client_info": {
          "package_name": "com.digitalpayy.digitalpayyaeps"
        }
      },
      "oauth_client": [
        {
          "client_id": "421535327263-c69n08rn83cgjg9lbbd93c0vmmbfl4rd.apps.googleusercontent.com",
          "client_type": 3
        }
      ],
      "api_key": [
        {
          "current_key": "AIzaSyA5djkYQogDtP_HXSx6ZS8wB8BMZzH5z3Q"
        }
      ],
      "services": {
        "appinvite_service": {
          "other_platform_oauth_client": [
            {
              "client_id": "421535327263-c69n08rn83cgjg9lbbd93c0vmmbfl4rd.apps.googleusercontent.com",
              "client_type": 3
            }
          ]
        }
      }
    },
    {
      "client_info": {
        "mobilesdk_app_id": "1:421535327263:android:cc823a69e42d2058",
        "android_client_info": {
          "package_name": "com.emitra.emitrahub"
        }
      },
      "oauth_client": [
        {
          "client_id": "421535327263-c69n08rn83cgjg9lbbd93c0vmmbfl4rd.apps.googleusercontent.com",
          "client_type": 3
        }
      ],
      "api_key": [
        {
          "current_key": "AIzaSyA5djkYQogDtP_HXSx6ZS8wB8BMZzH5z3Q"
        }
      ],
      "services": {
        "appinvite_service": {
          "other_platform_oauth_client": [
            {
              "client_id": "421535327263-c69n08rn83cgjg9lbbd93c0vmmbfl4rd.apps.googleusercontent.com",
              "client_type": 3
            }
          ]
        }
      }
    },
    {
      "client_info": {
        "mobilesdk_app_id": "1:421535327263:android:7052ee9a0dca6b4d",
        "android_client_info": {
          "package_name": "com.instant.instantpayments"
        }
      },
      "oauth_client": [
        {
          "client_id": "421535327263-c69n08rn83cgjg9lbbd93c0vmmbfl4rd.apps.googleusercontent.com",
          "client_type": 3
        }
      ],
      "api_key": [
        {
          "current_key": "AIzaSyA5djkYQogDtP_HXSx6ZS8wB8BMZzH5z3Q"
        }
      ],
      "services": {
        "appinvite_service": {
          "other_platform_oauth_client": [
            {
              "client_id": "421535327263-c69n08rn83cgjg9lbbd93c0vmmbfl4rd.apps.googleusercontent.com",
              "client_type": 3
            }
          ]
        }
      }
    },
    {
      "client_info": {
        "mobilesdk_app_id": "1:421535327263:android:9677c37d4a9279f2",
        "android_client_info": {
          "package_name": "com.iserve.iservepay"
        }
      },
      "oauth_client": [
        {
          "client_id": "421535327263-c69n08rn83cgjg9lbbd93c0vmmbfl4rd.apps.googleusercontent.com",
          "client_type": 3
        }
      ],
      "api_key": [
        {
          "current_key": "AIzaSyA5djkYQogDtP_HXSx6ZS8wB8BMZzH5z3Q"
        }
      ],
      "services": {
        "appinvite_service": {
          "other_platform_oauth_client": [
            {
              "client_id": "421535327263-c69n08rn83cgjg9lbbd93c0vmmbfl4rd.apps.googleusercontent.com",
              "client_type": 3
            }
          ]
        }
      }
    },
    {
      "client_info": {
        "mobilesdk_app_id": "1:421535327263:android:f007f4ae59301a37",
        "android_client_info": {
          "package_name": "com.iserveu.aeps"
        }
      },
      "oauth_client": [
        {
          "client_id": "421535327263-c69n08rn83cgjg9lbbd93c0vmmbfl4rd.apps.googleusercontent.com",
          "client_type": 3
        }
      ],
      "api_key": [
        {
          "current_key": "AIzaSyA5djkYQogDtP_HXSx6ZS8wB8BMZzH5z3Q"
        }
      ],
      "services": {
        "appinvite_service": {
          "other_platform_oauth_client": [
            {
              "client_id": "421535327263-c69n08rn83cgjg9lbbd93c0vmmbfl4rd.apps.googleusercontent.com",
              "client_type": 3
            }
          ]
        }
      }
    },
    {
      "client_info": {
        "mobilesdk_app_id": "1:421535327263:android:9548b1486aee988b",
        "android_client_info": {
          "package_name": "com.iserveu.iserveu"
        }
      },
      "oauth_client": [
        {
          "client_id": "421535327263-c69n08rn83cgjg9lbbd93c0vmmbfl4rd.apps.googleusercontent.com",
          "client_type": 3
        }
      ],
      "api_key": [
        {
          "current_key": "AIzaSyA5djkYQogDtP_HXSx6ZS8wB8BMZzH5z3Q"
        }
      ],
      "services": {
        "appinvite_service": {
          "other_platform_oauth_client": [
            {
              "client_id": "421535327263-c69n08rn83cgjg9lbbd93c0vmmbfl4rd.apps.googleusercontent.com",
              "client_type": 3
            }
          ]
        }
      }
    },
    {
      "client_info": {
        "mobilesdk_app_id": "1:421535327263:android:beb3e43371b4498d",
        "android_client_info": {
          "package_name": "com.matm.matmapp"
        }
      },
      "oauth_client": [
        {
          "client_id": "421535327263-c69n08rn83cgjg9lbbd93c0vmmbfl4rd.apps.googleusercontent.com",
          "client_type": 3
        }
      ],
      "api_key": [
        {
          "current_key": "AIzaSyA5djkYQogDtP_HXSx6ZS8wB8BMZzH5z3Q"
        }
      ],
      "services": {
        "appinvite_service": {
          "other_platform_oauth_client": [
            {
              "client_id": "421535327263-c69n08rn83cgjg9lbbd93c0vmmbfl4rd.apps.googleusercontent.com",
              "client_type": 3
            }
          ]
        }
      }
    },
    {
      "client_info": {
        "mobilesdk_app_id": "1:421535327263:android:0f6aab60095afee4",
        "android_client_info": {
          "package_name": "com.mnc.paymnc"
        }
      },
      "oauth_client": [
        {
          "client_id": "421535327263-c69n08rn83cgjg9lbbd93c0vmmbfl4rd.apps.googleusercontent.com",
          "client_type": 3
        }
      ],
      "api_key": [
        {
          "current_key": "AIzaSyA5djkYQogDtP_HXSx6ZS8wB8BMZzH5z3Q"
        }
      ],
      "services": {
        "appinvite_service": {
          "other_platform_oauth_client": [
            {
              "client_id": "421535327263-c69n08rn83cgjg9lbbd93c0vmmbfl4rd.apps.googleusercontent.com",
              "client_type": 3
            }
          ]
        }
      }
    },
    {
      "client_info": {
        "mobilesdk_app_id": "1:421535327263:android:13b1c6166de5e66b",
        "android_client_info": {
          "package_name": "com.onpay.onpayon"
        }
      },
      "oauth_client": [
        {
          "client_id": "421535327263-c69n08rn83cgjg9lbbd93c0vmmbfl4rd.apps.googleusercontent.com",
          "client_type": 3
        }
      ],
      "api_key": [
        {
          "current_key": "AIzaSyA5djkYQogDtP_HXSx6ZS8wB8BMZzH5z3Q"
        }
      ],
      "services": {
        "appinvite_service": {
          "other_platform_oauth_client": [
            {
              "client_id": "421535327263-c69n08rn83cgjg9lbbd93c0vmmbfl4rd.apps.googleusercontent.com",
              "client_type": 3
            }
          ]
        }
      }
    },
    {
      "client_info": {
        "mobilesdk_app_id": "1:421535327263:android:5d6c350cc4853fcc",
        "android_client_info": {
          "package_name": "com.pmoney.perfectmoney"
        }
      },
      "oauth_client": [
        {
          "client_id": "421535327263-c69n08rn83cgjg9lbbd93c0vmmbfl4rd.apps.googleusercontent.com",
          "client_type": 3
        }
      ],
      "api_key": [
        {
          "current_key": "AIzaSyA5djkYQogDtP_HXSx6ZS8wB8BMZzH5z3Q"
        }
      ],
      "services": {
        "appinvite_service": {
          "other_platform_oauth_client": [
            {
              "client_id": "421535327263-c69n08rn83cgjg9lbbd93c0vmmbfl4rd.apps.googleusercontent.com",
              "client_type": 3
            }
          ]
        }
      }
    },
    {
      "client_info": {
        "mobilesdk_app_id": "1:421535327263:android:54af4ba7f46543a0",
        "android_client_info": {
          "package_name": "com.rcec.rekha"
        }
      },
      "oauth_client": [
        {
          "client_id": "421535327263-c69n08rn83cgjg9lbbd93c0vmmbfl4rd.apps.googleusercontent.com",
          "client_type": 3
        }
      ],
      "api_key": [
        {
          "current_key": "AIzaSyA5djkYQogDtP_HXSx6ZS8wB8BMZzH5z3Q"
        }
      ],
      "services": {
        "appinvite_service": {
          "other_platform_oauth_client": [
            {
              "client_id": "421535327263-c69n08rn83cgjg9lbbd93c0vmmbfl4rd.apps.googleusercontent.com",
              "client_type": 3
            }
          ]
        }
      }
    },
    {
      "client_info": {
        "mobilesdk_app_id": "1:421535327263:android:ae5550f3358d4092",
        "android_client_info": {
          "package_name": "com.somriddhi.somriddhiaeps"
        }
      },
      "oauth_client": [
        {
          "client_id": "421535327263-c69n08rn83cgjg9lbbd93c0vmmbfl4rd.apps.googleusercontent.com",
          "client_type": 3
        }
      ],
      "api_key": [
        {
          "current_key": "AIzaSyA5djkYQogDtP_HXSx6ZS8wB8BMZzH5z3Q"
        }
      ],
      "services": {
        "appinvite_service": {
          "other_platform_oauth_client": [
            {
              "client_id": "421535327263-c69n08rn83cgjg9lbbd93c0vmmbfl4rd.apps.googleusercontent.com",
              "client_type": 3
            }
          ]
        }
      }
    },
    {
      "client_info": {
        "mobilesdk_app_id": "1:421535327263:android:74d3f4e891ed7221",
        "android_client_info": {
          "package_name": "com.suvidhamart.suvidha"
        }
      },
      "oauth_client": [
        {
          "client_id": "421535327263-c69n08rn83cgjg9lbbd93c0vmmbfl4rd.apps.googleusercontent.com",
          "client_type": 3
        }
      ],
      "api_key": [
        {
          "current_key": "AIzaSyA5djkYQogDtP_HXSx6ZS8wB8BMZzH5z3Q"
        }
      ],
      "services": {
        "appinvite_service": {
          "other_platform_oauth_client": [
            {
              "client_id": "421535327263-c69n08rn83cgjg9lbbd93c0vmmbfl4rd.apps.googleusercontent.com",
              "client_type": 3
            }
          ]
        }
      }
    }
  ],
  "configuration_version": "1"
}